{
	"name":        "getSum",
	"description": "Report1: query is to get 1+1 sum amount",

	"file":        "sql/getsum.sql",
	"primary key": [
		"HostName",
		"Exercise"
	],
	"storage": "report",
	"savehistoryrecords": false,

	"parameters": [
	],

	"component": {
		"name": "getSumReport",
		"struct": {
			"HostName": {
				"source":      "HostName",
				"displayName": "Host Name"
			},
			"CurrentTime": {
				"source":      "CurrentTime",
				"displayName": "Current Time",
				"type":        "date",
				"format":      "HH:mm:ss"
			},
			"Exercise": {
				"source": "Exercise"
			},
			"Solution": {
				"source": "Solution"
			}
		}
	}
}
