{
	"name":        "SQLite",
	"type":        "mysql",
	"description": "SQLite - test SQLite processing",
	"reports": {
		"Date": [
			"reports/mysql/GetDataSetReport1",
			"reports/mysql/GetDataSetReport2"
		]
	}
}
