{
	"name":        "getInstanceIOStatus",
	"description": "disks and databases I/O status",

	"file":        "sql/getInstanceIOStatus.sql",
	"primary key": [
		"EventDateTime",
		"ServerName",
		"Disk",
		"DatabaseId",
		"DatabaseName"
	],
	"storage": "staging",
	"savehistoryrecords": true,

	"parameters": [
	],

	"show_query_file": "sqlite/getInstanceIOStatus.hist.sql",

	"component": {
		"name": "twoDateLineReport",
		"struct": {
			"EventDateTime": {
				"source": "EventDateTime"
			},
			"EventValue": {
				"source": "num_of_reads"
			},
			"EventValueOther": {
				"source": "num_of_writes"
			}
		}
	}
}
